[gd_resource type="Environment" load_steps=2 format=2]

[sub_resource type="ProceduralSky" id=1]

[resource]
background_mode = 1
background_sky = SubResource( 1 )
background_color = Color( 0.12549, 0.12549, 0.12549, 1 )
ambient_light_color = Color( 1, 1, 1, 1 )
fog_color = Color( 0.12549, 0.12549, 0.12549, 1 )
fog_depth_begin = 12.0
fog_depth_end = 20.0
fog_depth_curve = 0.225313
glow_intensity = 2.0
glow_strength = 0.3
glow_bloom = 0.01
glow_bicubic_upscale = true
