[gd_resource type="Environment" load_steps=2 format=2]

[sub_resource type="ProceduralSky" id=1]

[resource]
background_mode = 5
background_sky = SubResource( 1 )
ambient_light_color = Color( 1, 1, 1, 1 )
fog_enabled = true
fog_color = Color( 0, 0, 0, 1 )
fog_depth_begin = 12.0
fog_depth_end = 400.0
fog_depth_curve = 0.120742
fog_transmit_curve = 0.435276
fog_height_min = 30.0
fog_height_max = -3.0
fog_height_curve = 1.23115
glow_intensity = 2.0
glow_strength = 0.3
glow_bloom = 0.01
glow_bicubic_upscale = true
adjustment_enabled = true
adjustment_contrast = 1.24
